<?xml version="1.0" encoding="UTF-8"?>
<testng-results skipped="0" failed="0" ignored="0" total="1" passed="1">
  <reporter-output>
  </reporter-output>
  <suite name="eVisaPP" duration-ms="17820" started-at="2020-12-17T11:21:53Z" finished-at="2020-12-17T11:22:11Z">
    <groups>
    </groups>
    <test name="evisareportportaldashboard" duration-ms="17820" started-at="2020-12-17T11:21:53Z" finished-at="2020-12-17T11:22:11Z">
      <class name="aero.sita.pts.gsl.evisaadmin.ci.test.applitooleyestest">
        <test-method status="PASS" signature="publicportallogintest()[pri:0, instance:aero.sita.pts.gsl.evisaadmin.ci.test.applitooleyestest@34c01041]" name="publicportallogintest" duration-ms="17718" started-at="2020-12-17T11:21:53Z" finished-at="2020-12-17T11:22:11Z">
          <reporter-output>
          </reporter-output>
        </test-method> <!-- publicportallogintest -->
      </class> <!-- aero.sita.pts.gsl.evisaadmin.ci.test.applitooleyestest -->
    </test> <!-- evisareportportaldashboard -->
  </suite> <!-- eVisaPP -->
</testng-results>
